{
  "n": {
    "item": "12.1.1",
    "rune": "7.23.1",
    "mastery": "7.23.1",
    "summoner": "12.1.1",
    "champion": "12.1.1",
    "profileicon": "12.1.1",
    "map": "12.1.1",
    "language": "12.1.1",
    "sticker": "12.1.1"
  },
  "v": "12.1.1",
  "l": "en_GB",
  "cdn": "https://ddragon.leagueoflegends.com/cdn",
  "dd": "12.1.1",
  "lg": "12.1.1",
  "css": "12.1.1",
  "profileiconmax": 28,
  "store": null
}